…
接下来，我们希望以类似的方式生成汇总效果的分布（因为在森林图中，汇总效果通常显示在最后一行）。因此，我们稍微调整了前面的代码，去掉了第二个参数，只获得了池化的效果。对mutate的调用只添加了一个名为“Author”的额外列。我们将结果保存为pool .effect.draw。
```r
pooled.effect.draws <- spread_draws(m.brm, b_Intercept) %>% 
  mutate(Author = "Pooled Effect")
```
接下来，我们结合`study.draws`和pooled.effect.在一个数据帧中一起绘制。然后我们再次启动管道，首先调用ungroup，然后使用mutate来(1)清理研究标签（即用空格替换点），(2)根据效应大小（从高到低）重新排序研究因子水平。结果是我们绘图所需的数据，我们将其保存为forest.data。
```r
forest.data <- bind_rows(study.draws, 
                         pooled.effect.draws) %>% 
  ungroup() %>%
  mutate(Author = str_replace_all(Author, "[.]", " ")) %>% 
  mutate(Author = reorder(Author, b_Intercept))
```
```
# A tibble: 152,000 × 6
# Groups:   Author [19]
# Author      r_Author .chain .iteration .draw b_Intercept
# <chr>          <dbl>  <int>      <int> <int>       <dbl>
#   1 Call.et.al.   0.231       1          1     1       0.786
# 2 Call.et.al.  -0.0303      1          2     2       0.548
# 3 Call.et.al.   0.144       1          3     3       0.694
# 4 Call.et.al.  -0.0408      1          4     4       0.646
# 5 Call.et.al.  -0.0732      1          5     5       0.517
# 6 Call.et.al.   0.0305      1          6     6       0.528
# 7 Call.et.al.  -0.0985      1          7     7       0.455
# 8 Call.et.al.   0.213       1          8     8       0.800
# 9 Call.et.al.   0.179       1          9     9       0.723
# 10 Call.et.al.   0.0439      1         10    10       0.673
# ℹ 151,990 more rows
# ℹ Use `print(n = ...)` to see more rows
```
…
